{
  "connections": [
    {
      "inputs": [
        {
          "connections":[],
          "name":"src",
          "type":" ",
          "visibility":"visible"
        }
      ],
      "outputs": [
        {
          "connections":[
            {
              "to":[1,0,0]
            }
          ],          "name":"cache_link",
          "type":"memHierarchy.memEvent",
          "visibility":"visible"
        }
      ],
      "type": "Component",
      "name": "Miranda",
      "data": {
        "component-name": "cpu",
        "component-type": "miranda.BaseCPU"
      }
    },
    {
      "inputs": [
        {
          "connections":[
            {
              "to":[0,0,0]
            }
          ],
          "name":"low_network_0",
          "type":"memHierarchy.MemEventBase",
          "visibility":"visible"
        }
      ],
      "outputs": [
        {
          "connections":[
            {
              "to":[2,0,0]
            }
          ],
          "name":"high_network_0",
          "type":"memHierarchy.MemEventBase",
          "visibility":"visible"
        }
      ],
      "name": "Cache",
      "type": "Component",
      "position": {"y": 300},
      "data": {
        "component-name": "l1cache",
        "component-type": "memHierarchy.Cache"
      }
    },
    {
      "inputs": [
        {
          "connections":[
            {
              "to":[1,0,0]
            }
          ],
          "name":"direct_link",
          "type":"memHierarchy.MemEventBase",
          "visibility":"visible"
        },
        {
          "connections":[],
          "name":"network",
          "type":" ",
          "visibility":"hidden"
        },
        {
          "connections":[],
          "name":"network_ack",
          "type":" ",
          "visibility":"hidden"
        },
        {
          "connections":[],
          "name":"network_fwd",
          "type":" ",
          "visibility":"hidden"
        },
        {
          "connections":[],
          "name":"network_data",
          "type":" ",
          "visibility":"hidden"
        }
      ],
      "outputs": [],
      "name": "MemController",
      "type": "Component",
      "position": {"y": 150},
      "data": {
        "component-name": "memory",
        "component-type": "memHierarchy.MemController"
      }
    }
  ]
}
