<?xml version="1.0" encoding="UTF-8" standalone="no"?>
<svg
   xmlns:dc="http://purl.org/dc/elements/1.1/"
   xmlns:cc="http://creativecommons.org/ns#"
   xmlns:rdf="http://www.w3.org/1999/02/22-rdf-syntax-ns#"
   xmlns:svg="http://www.w3.org/2000/svg"
   xmlns="http://www.w3.org/2000/svg"
   xmlns:sodipodi="http://sodipodi.sourceforge.net/DTD/sodipodi-0.dtd"
   xmlns:inkscape="http://www.inkscape.org/namespaces/inkscape"
   width="22"
   height="22"
   viewBox="0 0 22 22"
   version="1.1"
   id="svg2"
   inkscape:version="0.91 r13725"
   sodipodi:docname="simulator_large.svg"
   inkscape:export-filename="Z:\projects\occam\Large-Icons\group_large.png"
   inkscape:export-xdpi="392.72726"
   inkscape:export-ydpi="392.72726">
  <metadata
     id="metadata14">
    <rdf:RDF>
      <cc:Work
         rdf:about="">
        <dc:format>image/svg+xml</dc:format>
        <dc:type
           rdf:resource="http://purl.org/dc/dcmitype/StillImage" />
        <dc:title>album_collection</dc:title>
      </cc:Work>
    </rdf:RDF>
  </metadata>
  <sodipodi:namedview
     pagecolor="#ffffff"
     bordercolor="#666666"
     borderopacity="1"
     objecttolerance="10"
     gridtolerance="10"
     guidetolerance="10"
     inkscape:pageopacity="0"
     inkscape:pageshadow="2"
     inkscape:window-width="1920"
     inkscape:window-height="1176"
     id="namedview12"
     showgrid="false"
     inkscape:zoom="22.627417"
     inkscape:cx="8.3081567"
     inkscape:cy="8.2809642"
     inkscape:window-x="0"
     inkscape:window-y="24"
     inkscape:window-maximized="1"
     inkscape:current-layer="svg2" />
  <title
     id="title4">album_collection</title>
  <description
     id="description6">Created with Sketch (http://www.bohemiancoding.com/sketch)</description>
  <defs
     id="defs8" />
  <path
     style="fill:#2da0b7;fill-opacity:1;stroke:none;stroke-linejoin:miter"
     d="M 11,4.3419359 0.31147015,9.6135706 11,14.77692 21.68853,9.5052854 11,4.3419359 Z M 11,6.1775001 14.433429,7.8361105 11,6.6423336 5.0231917,9.5898006 11,12.476523 14.240629,11.34349 11,12.941356 4.0723959,9.5950828 11,6.1775001 Z"
     id="rect4722"
     inkscape:connector-curvature="0" />
  <path
     style="fill:#2da0b7;fill-opacity:1;stroke:none;stroke-linejoin:miter"
     d="m 0.31204648,10.101521 0.43863692,0.218795 0,2.520916 -0.43863692,-0.21879 z"
     id="rect4724"
     inkscape:connector-curvature="0"
     sodipodi:nodetypes="ccccc" />
  <path
     sodipodi:nodetypes="ccccc"
     inkscape:connector-curvature="0"
     id="path4738"
     d="m 1.0249902,10.445523 0.4386371,0.218793 0,2.520917 -0.4386371,-0.218793 z"
     style="fill:#2da0b7;fill-opacity:1;stroke:none;stroke-linejoin:miter" />
  <path
     style="fill:#2da0b7;fill-opacity:1;stroke:none;stroke-linejoin:miter"
     d="m 1.7379329,10.789521 0.4386367,0.218793 0,2.520918 -0.4386367,-0.218793 z"
     id="path4740"
     inkscape:connector-curvature="0"
     sodipodi:nodetypes="ccccc" />
  <path
     sodipodi:nodetypes="ccccc"
     inkscape:connector-curvature="0"
     id="path4742"
     d="m 10.293252,14.917515 0.438636,0.218792 0,2.520918 -0.438636,-0.218792 z"
     style="fill:#2da0b7;fill-opacity:1;stroke:none;stroke-linejoin:miter" />
  <path
     style="fill:#2da0b7;fill-opacity:1;stroke:none;stroke-linejoin:miter"
     d="m 9.5803069,14.573515 0.4386371,0.218793 0,2.520919 -0.4386371,-0.218795 z"
     id="path4744"
     inkscape:connector-curvature="0"
     sodipodi:nodetypes="ccccc" />
  <path
     sodipodi:nodetypes="ccccc"
     inkscape:connector-curvature="0"
     id="path4746"
     d="m 8.8673642,14.229516 0.4386369,0.218792 0,2.520919 -0.4386369,-0.218794 z"
     style="fill:#2da0b7;fill-opacity:1;stroke:none;stroke-linejoin:miter" />
  <path
     style="fill:#2da0b7;fill-opacity:1;stroke:none;stroke-linejoin:miter"
     d="m 8.1544206,13.885516 0.4386368,0.218795 0,2.520916 -0.4386368,-0.218793 z"
     id="path4748"
     inkscape:connector-curvature="0"
     sodipodi:nodetypes="ccccc" />
  <path
     sodipodi:nodetypes="ccccc"
     inkscape:connector-curvature="0"
     id="path4750"
     d="m 7.4414778,13.541517 0.438637,0.218791 0,2.520921 -0.438637,-0.218793 z"
     style="fill:#2da0b7;fill-opacity:1;stroke:none;stroke-linejoin:miter" />
  <path
     style="fill:#2da0b7;fill-opacity:1;stroke:none;stroke-linejoin:miter"
     d="m 6.7285364,13.197517 0.4386368,0.218793 0,2.520917 -0.4386368,-0.218793 z"
     id="path4752"
     inkscape:connector-curvature="0"
     sodipodi:nodetypes="ccccc" />
  <path
     sodipodi:nodetypes="ccccc"
     inkscape:connector-curvature="0"
     id="path4754"
     d="m 6.0155919,12.853518 0.4386376,0.218793 0,2.520918 -0.4386376,-0.218792 z"
     style="fill:#2da0b7;fill-opacity:1;stroke:none;stroke-linejoin:miter" />
  <path
     style="fill:#2da0b7;fill-opacity:1;stroke:none;stroke-linejoin:miter"
     d="m 5.3026495,12.509519 0.4386369,0.218793 0,2.520917 -0.4386369,-0.218793 z"
     id="path4756"
     inkscape:connector-curvature="0"
     sodipodi:nodetypes="ccccc" />
  <path
     sodipodi:nodetypes="ccccc"
     inkscape:connector-curvature="0"
     id="path4758"
     d="m 4.5897058,12.165519 0.4386366,0.218793 0,2.520917 -0.4386366,-0.218793 z"
     style="fill:#2da0b7;fill-opacity:1;stroke:none;stroke-linejoin:miter" />
  <path
     style="fill:#2da0b7;fill-opacity:1;stroke:none;stroke-linejoin:miter"
     d="m 3.8767619,11.821519 0.4386369,0.218794 0,2.520919 -0.4386369,-0.218793 z"
     id="path4760"
     inkscape:connector-curvature="0"
     sodipodi:nodetypes="ccccc" />
  <path
     sodipodi:nodetypes="ccccc"
     inkscape:connector-curvature="0"
     id="path4762"
     d="m 3.1638192,11.477522 0.438637,0.218792 0,2.520918 -0.438637,-0.218794 z"
     style="fill:#2da0b7;fill-opacity:1;stroke:none;stroke-linejoin:miter" />
  <path
     style="fill:#2da0b7;fill-opacity:1;stroke:none;stroke-linejoin:miter"
     d="m 2.4508755,11.133521 0.4386368,0.218793 0,2.520917 -0.4386368,-0.218791 z"
     id="path4764"
     inkscape:connector-curvature="0"
     sodipodi:nodetypes="ccccc" />
  <path
     sodipodi:nodetypes="ccccc"
     inkscape:connector-curvature="0"
     id="path4804"
     d="m 21.687954,9.9390076 -0.438638,0.2187924 0,2.520918 0.438638,-0.218791 z"
     style="fill:#2da0b7;fill-opacity:1;stroke:none;stroke-linejoin:miter" />
  <path
     style="fill:#2da0b7;fill-opacity:1;stroke:none;stroke-linejoin:miter"
     d="m 20.974394,10.291022 -0.438636,0.218793 0,2.520919 0.438636,-0.218793 z"
     id="path4806"
     inkscape:connector-curvature="0"
     sodipodi:nodetypes="ccccc" />
  <path
     sodipodi:nodetypes="ccccc"
     inkscape:connector-curvature="0"
     id="path4808"
     d="m 20.260837,10.643039 -0.438638,0.218792 0,2.520917 0.438638,-0.218792 z"
     style="fill:#2da0b7;fill-opacity:1;stroke:none;stroke-linejoin:miter" />
  <path
     style="fill:#2da0b7;fill-opacity:1;stroke:none;stroke-linejoin:miter"
     d="m 11.698127,14.867225 -0.438637,0.218792 0,2.520919 0.438637,-0.218794 z"
     id="path4810"
     inkscape:connector-curvature="0"
     sodipodi:nodetypes="ccccc" />
  <path
     sodipodi:nodetypes="ccccc"
     inkscape:connector-curvature="0"
     id="path4812"
     d="m 12.411683,14.51521 -0.438636,0.218792 0,2.520919 0.438636,-0.218793 z"
     style="fill:#2da0b7;fill-opacity:1;stroke:none;stroke-linejoin:miter" />
  <path
     style="fill:#2da0b7;fill-opacity:1;stroke:none;stroke-linejoin:miter"
     d="m 13.125245,14.163196 -0.438638,0.218791 0,2.520919 0.438638,-0.218793 z"
     id="path4814"
     inkscape:connector-curvature="0"
     sodipodi:nodetypes="ccccc" />
  <path
     sodipodi:nodetypes="ccccc"
     inkscape:connector-curvature="0"
     id="path4816"
     d="m 13.838803,13.81118 -0.438637,0.218793 0,2.520917 0.438637,-0.218793 z"
     style="fill:#2da0b7;fill-opacity:1;stroke:none;stroke-linejoin:miter" />
  <path
     style="fill:#2da0b7;fill-opacity:1;stroke:none;stroke-linejoin:miter"
     d="m 14.552364,13.459164 -0.438638,0.218793 0,2.520917 0.438638,-0.218791 z"
     id="path4818"
     inkscape:connector-curvature="0"
     sodipodi:nodetypes="ccccc" />
  <path
     sodipodi:nodetypes="ccccc"
     inkscape:connector-curvature="0"
     id="path4820"
     d="m 15.265921,13.107147 -0.438638,0.218795 0,2.520918 0.438638,-0.218795 z"
     style="fill:#2da0b7;fill-opacity:1;stroke:none;stroke-linejoin:miter" />
  <path
     style="fill:#2da0b7;fill-opacity:1;stroke:none;stroke-linejoin:miter"
     d="m 15.979481,12.755132 -0.438637,0.218793 0,2.520917 0.438637,-0.218792 z"
     id="path4822"
     inkscape:connector-curvature="0"
     sodipodi:nodetypes="ccccc" />
  <path
     sodipodi:nodetypes="ccccc"
     inkscape:connector-curvature="0"
     id="path4824"
     d="m 16.69304,12.403116 -0.438638,0.218794 0,2.520917 0.438638,-0.218792 z"
     style="fill:#2da0b7;fill-opacity:1;stroke:none;stroke-linejoin:miter" />
  <path
     style="fill:#2da0b7;fill-opacity:1;stroke:none;stroke-linejoin:miter"
     d="m 17.406599,12.0511 -0.438637,0.218793 0,2.520919 0.438637,-0.218793 z"
     id="path4826"
     inkscape:connector-curvature="0"
     sodipodi:nodetypes="ccccc" />
  <path
     sodipodi:nodetypes="ccccc"
     inkscape:connector-curvature="0"
     id="path4828"
     d="m 18.120158,11.699086 -0.438636,0.218791 0,2.520918 0.438636,-0.218793 z"
     style="fill:#2da0b7;fill-opacity:1;stroke:none;stroke-linejoin:miter" />
  <path
     style="fill:#2da0b7;fill-opacity:1;stroke:none;stroke-linejoin:miter"
     d="m 18.833718,11.347068 -0.438638,0.218793 0,2.520919 0.438638,-0.218794 z"
     id="path4830"
     inkscape:connector-curvature="0"
     sodipodi:nodetypes="ccccc" />
  <path
     sodipodi:nodetypes="ccccc"
     inkscape:connector-curvature="0"
     id="path4832"
     d="m 19.547276,10.995054 -0.438638,0.218793 0,2.520919 0.438638,-0.218795 z"
     style="fill:#2da0b7;fill-opacity:1;stroke:none;stroke-linejoin:miter" />
</svg>
